module gitlab.com/walking4wq/promaction

go 1.17

require (
	github.com/prometheus/common v0.37.0
	gopkg.in/alecthomas/kingpin.v2 v2.2.6
)

require (
	github.com/fogleman/gg v1.3.0 // indirect
	github.com/goccy/go-graphviz v0.0.9 // indirect
	github.com/golang/freetype v0.0.0-20170609003504-e2365dfdc4a0 // indirect
	github.com/looplab/fsm v0.3.0 // indirect
	github.com/robertkrimen/otto v0.0.0-20211024170158-b87d35c0b86f // indirect
	golang.org/x/image v0.0.0-20200119044424-58c23975cae1 // indirect
	gopkg.in/sourcemap.v1 v1.0.5 // indirect
)

require (
	github.com/Knetic/govaluate v3.0.1-0.20171022003610-9aa49832a739+incompatible // indirect
	github.com/PuerkitoBio/purell v1.1.1 // indirect
	github.com/PuerkitoBio/urlesc v0.0.0-20170810143723-de5bf2ad4578 // indirect
	github.com/alecthomas/template v0.0.0-20190718012654-fb15b899a751 // indirect
	github.com/alecthomas/units v0.0.0-20211218093645-b94a6e3cc137 // indirect
	github.com/asaskevich/govalidator v0.0.0-20210307081110-f21760c49a8d // indirect
	github.com/aws/aws-sdk-go v1.44.72 // indirect
	github.com/beorn7/perks v1.0.1 // indirect
	github.com/casbin/casbin/v2 v2.51.1 // indirect
	github.com/cespare/xxhash/v2 v2.1.2 // indirect
	github.com/davecgh/go-spew v1.1.1 // indirect
	github.com/dennwc/varint v1.0.0 // indirect
	github.com/dgrijalva/jwt-go v3.2.0+incompatible
	github.com/dgryski/go-rendezvous v0.0.0-20200823014737-9f7001d12a5f // indirect
	github.com/edsrzf/mmap-go v1.1.0 // indirect
	github.com/felixge/httpsnoop v1.0.3 // indirect
	github.com/go-kit/log v0.2.1
	github.com/go-logfmt/logfmt v0.5.1 // indirect
	github.com/go-logr/logr v1.2.3 // indirect
	github.com/go-logr/stdr v1.2.2 // indirect
	github.com/go-openapi/analysis v0.21.2 // indirect
	github.com/go-openapi/errors v0.20.2 // indirect
	github.com/go-openapi/jsonpointer v0.19.5 // indirect
	github.com/go-openapi/jsonreference v0.19.6 // indirect
	github.com/go-openapi/loads v0.21.1 // indirect
	github.com/go-openapi/spec v0.20.4 // indirect
	github.com/go-openapi/strfmt v0.21.3 // indirect
	github.com/go-openapi/swag v0.21.1 // indirect
	github.com/go-openapi/validate v0.21.0 // indirect
	github.com/go-redis/redis/v9 v9.0.0-beta.2
	github.com/go-stack/stack v1.8.1
	github.com/gogo/protobuf v1.3.2 // indirect
	github.com/golang-jwt/jwt v3.2.2+incompatible
	github.com/golang/protobuf v1.5.2 // indirect
	github.com/golang/snappy v0.0.4 // indirect
	github.com/gorhill/cronexpr v0.0.0-20180427100037-88b0669f7d75 // indirect
	github.com/grafana/regexp v0.0.0-20220304095617-2e8d9baf4ac2 // indirect
	github.com/inconshreveable/log15 v0.0.0-20201112154412-8562bdadbbac
	github.com/jmespath/go-jmespath v0.4.0 // indirect
	github.com/josharian/intern v1.0.0 // indirect
	github.com/jpillora/backoff v1.0.0 // indirect
	github.com/json-iterator/go v1.1.12 // indirect
	github.com/julienschmidt/httprouter v1.3.0 // indirect
	github.com/labstack/echo-contrib v0.13.0
	github.com/labstack/echo/v4 v4.9.0
	github.com/labstack/gommon v0.3.1 // indirect
	github.com/mailru/easyjson v0.7.7 // indirect
	github.com/mattn/go-colorable v0.1.13 // indirect
	github.com/mattn/go-isatty v0.0.16 // indirect
	github.com/matttproud/golang_protobuf_extensions v1.0.2-0.20181231171920-c182affec369 // indirect
	github.com/mitchellh/mapstructure v1.5.0 // indirect
	github.com/modern-go/concurrent v0.0.0-20180306012644-bacd9c7ef1dd // indirect
	github.com/modern-go/reflect2 v1.0.2 // indirect
	github.com/mwitkow/go-conntrack v0.0.0-20190716064945-2f068394615f // indirect
	github.com/oklog/ulid v1.3.1 // indirect
	github.com/pkg/errors v0.9.1 // indirect
	github.com/pmezard/go-difflib v1.0.0 // indirect
	github.com/prometheus/alertmanager v0.24.0 // indirect
	github.com/prometheus/client_golang v1.13.0
	github.com/prometheus/client_model v0.2.0 // indirect
	github.com/prometheus/common/assets v0.2.0 // indirect
	github.com/prometheus/common/sigv4 v0.1.0 // indirect
	github.com/prometheus/exporter-toolkit v0.7.1
	github.com/prometheus/procfs v0.8.0 // indirect
	github.com/prometheus/prometheus v0.38.0
	github.com/robfig/cron/v3 v3.0.1
	github.com/shurcooL/httpfs v0.0.0-20190707220628-8d4bc4ba7749 // indirect
	github.com/stretchr/testify v1.8.0 // indirect
	github.com/valyala/bytebufferpool v1.0.0 // indirect
	github.com/valyala/fasttemplate v1.2.1 // indirect
	go.mongodb.org/mongo-driver v1.10.0 // indirect
	go.opentelemetry.io/contrib/instrumentation/net/http/otelhttp v0.34.0 // indirect
	go.opentelemetry.io/otel v1.9.0 // indirect
	go.opentelemetry.io/otel/metric v0.31.0 // indirect
	go.opentelemetry.io/otel/trace v1.9.0 // indirect
	go.uber.org/atomic v1.9.0 // indirect
	go.uber.org/goleak v1.1.12 // indirect
	golang.org/x/crypto v0.0.0-20220722155217-630584e8d5aa // indirect
	golang.org/x/net v0.0.0-20220809184613-07c6da5e1ced // indirect
	golang.org/x/oauth2 v0.0.0-20220808172628-8227340efae7 // indirect
	golang.org/x/sync v0.0.0-20220722155255-886fb9371eb4 // indirect
	golang.org/x/sys v0.0.0-20220811171246-fbc7d0a398ab // indirect
	golang.org/x/text v0.3.7 // indirect
	golang.org/x/time v0.0.0-20220722155302-e5dcc9cfc0b9 // indirect
	google.golang.org/appengine v1.6.7 // indirect
	google.golang.org/protobuf v1.28.1 // indirect
	gopkg.in/yaml.v2 v2.4.0
	gopkg.in/yaml.v3 v3.0.1 // indirect
)
